Division,WeightClassKg,Place,Name,Team,BodyweightKg,Best3SquatKg,Best3BenchKg,Best3DeadliftKg,TotalKg,Equipment,Event,Sex,BirthDate
Girls,44.23,1,LeighAnn Sitzman,Decatur,42.64,111.13,65.77,111.13,288.03,Single-ply,SBD,F,
Girls,44.23,2,Yeraldine Perez,Weatherford,43.54,68.04,36.29,68.04,172.37,Single-ply,SBD,F,
Girls,44.23,3,Jonaleen Hernandez,Lake Worth,42.82,43.09,24.95,61.23,129.27,Single-ply,SBD,F,
Girls,47.85,1,Julyssa Cantu,Decatur,47.17,83.91,31.75,70.31,185.97,Single-ply,SBD,F,
Girls,47.85,2,Jackie Friddle,Bridgeport,47.63,79.38,29.48,72.57,181.44,Single-ply,SBD,F,
Girls,51.94,1,Ashanti Monk,Bridgeport,48.99,102.06,45.36,97.52,244.94,Single-ply,SBD,F,
Girls,51.94,2,Laney Carroll,Graham,51.71,97.52,34.02,83.91,215.46,Single-ply,SBD,F,
Girls,51.94,3,Lexi Sellards,Decatur,51.71,88.45,31.75,90.72,210.92,Single-ply,SBD,F,
Girls,51.94,4,Andrea Banegas,Mineral Wells,49.44,72.57,40.82,90.72,204.12,Single-ply,SBD,F,
Girls,51.94,5,Taylor Kemp #1,Bridgeport,51.71,72.57,29.48,95.25,197.31,Single-ply,SBD,F,
Girls,56.02,1,Sabrina Kirk,Lake Worth,55.34,102.06,47.63,83.91,233.6,Single-ply,SBD,F,
Girls,56.02,2,Kayla Host,Weatherford,53.52,61.23,38.56,72.57,172.37,Single-ply,SBD,F,
Girls,56.02,3,Emily Odom,Graham,53.07,54.43,31.75,58.97,145.15,Single-ply,SBD,F,
Girls,60.1,1,Bree Rundle,Decatur,59.42,104.33,40.82,106.59,251.74,Single-ply,SBD,F,
Girls,60.1,2,Valerie Deluna,Bridgeport,58.51,81.65,38.56,97.52,217.72,Single-ply,SBD,F,
Girls,60.1,3,Mackenzie Winter,Decatur,56.7,86.18,38.56,88.45,213.19,Single-ply,SBD,F,
Girls,60.1,4,Yuliza Ramos,Weatherford,58.51,74.84,40.82,92.99,208.65,Single-ply,SBD,F,
Girls,60.1,5,Stephanie Taylor,Weatherford,58.51,70.31,40.82,79.38,190.51,Single-ply,SBD,F,
Girls,60.1,6,Marissa Woods,Lake Worth,58.97,83.91,34.02,72.57,190.51,Single-ply,SBD,F,
Girls,60.1,7,Shyla Pressley,Bridgeport,56.7,81.65,34.02,70.31,185.97,Single-ply,SBD,F,
Girls,67.36,1,Taylor Wilborn,Graham,65.32,117.93,45.36,120.2,283.5,Single-ply,SBD,F,
Girls,67.36,2,Sunshine Trotter,Decatur,62.14,111.13,45.36,111.13,267.62,Single-ply,SBD,F,
Girls,67.36,3,McKenna Samples,Decatur,64.86,102.06,47.63,102.06,251.74,Single-ply,SBD,F,
Girls,67.36,4,Mallory Floyd,Weatherford,67.13,104.33,54.43,83.91,242.67,Single-ply,SBD,F,
Girls,67.36,5,Abby Donahue,Decatur,60.33,99.79,43.09,92.99,235.87,Single-ply,SBD,F,
Girls,67.36,6,Ashlynn Gillispie,Decatur,63.96,92.99,49.9,92.99,235.87,Single-ply,SBD,F,
Girls,67.36,7,Mara Perez,Bridgeport,62.14,97.52,29.48,92.99,219.99,Single-ply,SBD,F,
Girls,67.36,8,Jadyn McCoy,Bridgeport,64.41,77.11,40.82,102.06,219.99,Single-ply,SBD,F,
Girls,67.36,9,Hailey Copen,Decatur,65.32,88.45,40.82,88.45,217.72,Single-ply,SBD,F,
Girls,67.36,10,Brooklyn Rutledge,Lake Worth,67.13,83.91,45.36,74.84,204.12,Single-ply,SBD,F,
Girls,75.07,1,Kathryn Kittrell,Decatur,69.4,124.74,54.43,149.69,328.85,Single-ply,SBD,F,
Girls,75.07,2,Madison Hines,Weatherford,72.12,131.54,61.23,120.2,312.98,Single-ply,SBD,F,
Girls,75.07,3,Grace Taylor,Graham,72.57,102.06,65.77,106.59,274.42,Single-ply,SBD,F,
Girls,75.07,4,Alexis McCune,Weatherford,74.39,104.33,65.77,104.33,274.42,Single-ply,SBD,F,
Girls,75.07,5,Bella Hernandez,Graham,70.31,79.38,38.56,99.79,217.72,Single-ply,SBD,F,
Girls,75.07,6,Zoe Laverty,Decatur,73.03,90.72,36.29,88.45,215.46,Single-ply,SBD,F,
Girls,75.07,7,Lizzette Sequra,Decatur,70.31,90.72,38.56,81.65,210.92,Single-ply,SBD,F,
Girls,75.07,8,Cheyanne Huffman,Bridgeport,67.59,61.23,38.56,83.91,183.7,Single-ply,SBD,F,
Girls,82.33,1,Alissa Acosta,Mineral Wells,78.47,113.4,54.43,120.2,288.03,Single-ply,SBD,F,
Girls,82.33,2,Emily Defosse,Weatherford,80.74,92.99,52.16,95.25,240.4,Single-ply,SBD,F,
Girls,82.33,3,Marissa Mixon,Graham,80.74,70.31,34.02,106.59,210.92,Single-ply,SBD,F,
Girls,82.33,4,Claire Mairena,Graham,77.56,70.31,36.29,83.91,190.51,Single-ply,SBD,F,
Girls,82.33,DQ,Jenifer Lara,Graham,76.2,56.7,,,,Single-ply,SBD,F,
Girls,90.04,1,Juliana Lopez,Decatur,85.28,142.88,68.04,136.08,347,Single-ply,SBD,F,
Girls,90.04,2,Shelby Wheeler,Mineral Wells,89.81,129.27,56.7,124.74,310.71,Single-ply,SBD,F,
Girls,90.04,3,Fatima Cansino,Weatherford,86.18,120.2,68.04,115.67,303.91,Single-ply,SBD,F,
Girls,90.04,4,Kaylie Stacy,Decatur,85.73,111.13,49.9,113.4,274.42,Single-ply,SBD,F,
Girls,90.04,5,Gensis Avila,Graham,85.28,79.38,36.29,99.79,215.46,Single-ply,SBD,F,
Girls,90.04,DQ,Desiree Garcia,Mineral Wells,89.81,,,,,Single-ply,SBD,F,
Girls,100.02,1,Alyvia Thomas,Weatherford,97.07,136.08,81.65,117.93,335.66,Single-ply,SBD,F,
Girls,100.02,2,Carolina Tejada,Mineral Wells,98.43,142.88,54.43,129.27,326.59,Single-ply,SBD,F,
Girls,100.02,3,Lizeth Olmos,Bridgeport,99.79,136.08,68.04,113.4,317.51,Single-ply,SBD,F,
Girls,100.02,4,Ireland Beaty,Graham,97.98,90.72,49.9,136.08,276.69,Single-ply,SBD,F,
Girls,100.02,5,Natalia Sanchez,Lake Worth,92.08,95.25,49.9,97.52,242.67,Single-ply,SBD,F,
Girls,100.02,6,Kylie Webb,Graham,99.79,81.65,38.56,108.86,229.06,Single-ply,SBD,F,
Girls,100.02,7,Brenda Wilborn,Graham,96.62,72.57,40.82,86.18,199.58,Single-ply,SBD,F,
Girls,117.71,1,Melissa Urbina,Graham,117.48,161.03,58.97,120.2,340.19,Single-ply,SBD,F,
Girls,117.71,2,Zoe Snow,Mineral Wells,108.86,138.35,52.16,117.93,308.44,Single-ply,SBD,F,
Girls,117.71,3,Sophia Perez,Lake Worth,106.59,74.84,34.02,124.74,233.6,Single-ply,SBD,F,
Girls,117.71+,1,Andrea Butler,Mineral Wells,126.55,181.44,65.77,147.42,394.63,Single-ply,SBD,F,
