Name,Division,Sex,Equipment,Event,BodyweightKg,WeightClassKg,Squat1Kg,Squat2Kg,Squat3Kg,Squat4Kg,Best3SquatKg,Bench1Kg,Bench2Kg,Bench3Kg,Bench4Kg,Best3BenchKg,Deadlift1Kg,Deadlift2Kg,Deadlift3Kg,Deadlift4Kg,Best3DeadliftKg,TotalKg,Place
Sofia Scoufos,F-O,F,Single-ply,SBD,63,63,80,90,100,,100,70,-77.5,77.5,-80,77.5,80,,,,80,257.5,1
Joann Evans,F-O,F,Single-ply,SBD,,90+,105,115,125,,125,45,50,52.5,,52.5,95,-105,-105,,95,272.5,2
Peter Mong,M-O,M,Single-ply,SBD,60,60,60,75,,,75,87.5,92.5,96,97.5,96,75,100,,,100,271,7
Bradley Matthews,M-T3,M,Single-ply,SBD,68.6,75,105,120,-127.5,,120,67.5,72.5,80,,80,125,137.5,145,,145,345,6
Nathan Deppler,M-O,M,Single-ply,SBD,72,75,130,137.5,142.5,,142.5,62.5,67.5,-70,,67.5,165,175,182.5,,182.5,392.5,4
Shane Newman,M-JR,M,Single-ply,SBD,83.3,90,187.5,195.5,-205,,195.5,77.5,85,-90,,85,212.5,222.5,232.5,,232.5,512.5,2
David Pye,M-O,M,Single-ply,SBD,82.6,90,185,195,-205,205,195,102.5,110,115,117.5,115,190,205,220,230,220,530,1
Simon Jarvis,M-JR,M,Single-ply,SBD,101.6,110,192.5,200,207.5,,207.5,97.5,102.5,107.5,,107.5,220,230,240,247.5,240,555,3
Simon Morton,M-O,M,Single-ply,SBD,114.5,125,155,170,182.5,,182.5,95,100,-107.5,,100,195,-210,-210,,195,477.5,5
