WeightClassKg,Name,Best3SquatKg,Best3BenchKg,Best3DeadliftKg,TotalKg,Place,Event,Equipment,Division,Sex
48,Denise Oakley,60,35,75,170,1,SBD,Single-ply,F-E-Open,F
52,Jenny Hunter,142.5,80,165,387.5,1,SBD,Single-ply,F-E-Open,F
56,Rebecca Payne,85,40,105,230,1,SBD,Single-ply,F-E-Open,F
60,Eddie Haynes,105,50,137,292,1,SBD,Single-ply,F-E-Open,F
67.5,Mandy Smith,140,75,155,370,1,SBD,Single-ply,F-E-Open,F
