Place,Name,Country,Best3SquatKg,Best3BenchKg,Best3DeadliftKg,TotalKg,WeightClassKg,Sex,Event,Equipment
1,Anna-Liisa Prinkkala,Finland,122.5,60,132.5,315,44,F,SBD,Single-ply
2,Monique Rowers,Netherlands,105,60,132.5,297.5,44,F,SBD,Single-ply
3,Anna-Maija Honka,Sweden,110,52.5,127.5,290,44,F,SBD,Single-ply
4,Ursula Kolodzij,Germany,97.5,57.5,125,280,44,F,SBD,Single-ply
5,Leena Jokitalo,Finland,120,42.5,117.5,280,44,F,SBD,Single-ply
6,Helen Wolsey,UK,92.5,55,125,272.5,44,F,SBD,Single-ply
7,Ingrid Schabauer,Austria,90,52.5,120,262.5,44,F,SBD,Single-ply
8,Antoinette Saalmink,Netherlands,95,45,120,260,44,F,SBD,Single-ply
9,Yvonne Gourlay,France,87.5,50,120,257.5,44,F,SBD,Single-ply
DQ,Malou Thill,Luxembourg,,,,,44,F,SBD,Single-ply
1,Marie-France Vassart,Belgium,125,65,155,345,48,F,SBD,Single-ply
2,Vuokko Viitasaari,Finland,130,62.5,150,342.5,48,F,SBD,Single-ply
3,Irma Ruler,Netherlands,130,60,125,315,48,F,SBD,Single-ply
4,Lena Wessmann,Sweden,120,60,132.5,312.5,48,F,SBD,Single-ply
5,Thais Delahousse,Belgium,105,47.5,130,282.5,48,F,SBD,Single-ply
DQ,Karen Cameron,UK,,,,,48,F,SBD,Single-ply
1,Sisi Dolman,Netherlands,162.5,72.5,170,405,52,F,SBD,Single-ply
2,Dagmar Wang,Austria,137.5,75,152.5,365,52,F,SBD,Single-ply
3,Laura Locatelli,Italy,130,60,172.5,362.5,52,F,SBD,Single-ply
4,Liisa Jurkko,Finland,140,62.5,130,332.5,52,F,SBD,Single-ply
5,Bernadette Luiten,Belgium,125,67.5,140,332.5,52,F,SBD,Single-ply
6,Susanne Cunat,Austria,117.5,65,135,317.5,52,F,SBD,Single-ply
7,Gaby Elbers,Germany,115,62.5,135,312.5,52,F,SBD,Single-ply
DQ,Veronique Clementelli,France,,,,,52,F,SBD,Single-ply
DQ,Marie-France Baron,France,,,,,52,F,SBD,Single-ply
1,Jenny Hunter,UK,147.5,77.5,175,400,56,F,SBD,Single-ply
2,Anna Restrup,Sweden,140,85,160,385,56,F,SBD,Single-ply
3,Marion Hammang,Luxembourg,145,77.5,157.5,380,56,F,SBD,Single-ply
4,Theo Knoop,Netherlands,150,72.5,147.5,370,56,F,SBD,Single-ply
5,Jackie Blasbery,UK,140,65,150,355,56,F,SBD,Single-ply
6,Dorothea Ludwig,Germany,120,65,155,340,56,F,SBD,Single-ply
7,Mieke Vivijs,Belgium,120,55,140,315,56,F,SBD,Single-ply
8,Aagot Carlsson,Norway,105,65,145,315,56,F,SBD,Single-ply
9,Blandin Zonekyndt,France,125,55,135,315,56,F,SBD,Single-ply
10,Conny Sleuyter,Belgium,117.5,47.5,135,300,56,F,SBD,Single-ply
11,Jeanne Guellorit,France,87.5,55,145,287.5,56,F,SBD,Single-ply
1,Alice Kargl,Germany,155,85,200,440,60,F,SBD,Single-ply
2,Minna Rehn,Finland,167.5,72.5,167.5,407.5,60,F,SBD,Single-ply
3,Danielle Loranj,Luxembourg,157.5,67.5,160,385,60,F,SBD,Single-ply
4,Beatrice Nilsson,Sweden,142.5,75,162.5,380,60,F,SBD,Single-ply
5,Solveig Blikra Inger,Norway,140,72.5,160,372.5,60,F,SBD,Single-ply
1,Liz Odendaal,Netherlands,167.5,97.5,180,445,67.5,F,SBD,Single-ply
2,Marleen Nelis,Belgium,155,97.5,180,432.5,67.5,F,SBD,Single-ply
3,Marion Dietrich,Germany,155,95,177.5,427.5,67.5,F,SBD,Single-ply
4,Amanda Smith,UK,145,85,175,405,67.5,F,SBD,Single-ply
5,Ursula Weber,Austria,140,87.5,167.5,395,67.5,F,SBD,Single-ply
6,Silvy Fournier,France,145,75,150,370,67.5,F,SBD,Single-ply
7,Yvonne Nilsson,Sweden,137.5,70,157.5,365,67.5,F,SBD,Single-ply
8,Claudine Huyghe,France,142.5,70,147.5,360,67.5,F,SBD,Single-ply
9,Elvira Wallauch,Austria,130,67.5,160,357.5,67.5,F,SBD,Single-ply
10,Kirsten Vinje,Norway,140,72.5,140,352.5,67.5,F,SBD,Single-ply
DQ,Jasmine Devriendt,Belgium,,,,,67.5,F,SBD,Single-ply
1,Ingrid Nelis,Belgium,172.5,92.5,182.5,447.5,75,F,SBD,Single-ply
2,Stefanula Giannolidis,Germany,162.5,92.5,177.5,432.5,75,F,SBD,Single-ply
3,Antonella D'Aloia,Italy,147.5,87.5,182.5,417.5,75,F,SBD,Single-ply
4,Joke van der Meulen,Netherlands,157.5,82.5,167.5,407.5,75,F,SBD,Single-ply
5,Francine Wellens,Belgium,150,75,170,395,75,F,SBD,Single-ply
6,Sue Mackness,UK,140,75,167.5,382.5,75,F,SBD,Single-ply
7,Monika Norr,Sweden,142.5,77.5,162.5,382.5,75,F,SBD,Single-ply
8,Manuela Moretti,Italy,115,62.5,152.5,330,75,F,SBD,Single-ply
1,Judith Oakes,UK,205,110,205,520,82.5,F,SBD,Single-ply
2,Mette Bergman,Norway,175,97.5,182.5,455,82.5,F,SBD,Single-ply
3,Eva Bonnaire,Germany,155,65,185,405,82.5,F,SBD,Single-ply
4,Yvonne Clark,UK,145,67.5,180,392.5,82.5,F,SBD,Single-ply
5,Britt Eriksson,Sweden,135,95,135,365,82.5,F,SBD,Single-ply
6,Ingrid van Puffelen,Netherlands,117.5,80,167.5,365,82.5,F,SBD,Single-ply
1,Jacqueline Pepper,UK,175,90,190,455,90,F,SBD,Single-ply
2,Susanne Formgreen,Sweden,170,85,160,415,90,F,SBD,Single-ply
3,Catherine Witte,Netherlands,150,77.5,150,377.5,90,F,SBD,Single-ply
4,Dalida Rota,France,150,82.5,145,377.5,90,F,SBD,Single-ply
5,Joke Anthonissen,Netherlands,140,70,140,350,90,F,SBD,Single-ply
DQ,Veronique Menner,Austria,,,,,90,F,SBD,Single-ply
1,Taina Hakala-Rajala,Finland,190,110.5,195,495.5,90+,F,SBD,Single-ply
2,Annette Maldener,Germany,190,92.5,187.5,470,90+,F,SBD,Single-ply
3,Taina Stahl,Sweden,172.5,87.5,177.5,437.5,90+,F,SBD,Single-ply
4,Janis Kerr,UK,155,95,172.5,422.5,90+,F,SBD,Single-ply
5,Annerose Stephan,Germany,157.5,67.5,155,380,90+,F,SBD,Single-ply
